Fit Proper Motion Anomaly · Octofitter.jl
…
HGCALikelihood Table with 35 columns and 1 row:
     hip_id  gaia_source_id      gaia_ra  gaia_dec  radial_velocity  ⋯
   ┌──────────────────────────────────────────────────────────────────
 1 │ 51658   756291174721509376  158.307  40.4256   9.0              ⋯

We specify priors on M and plx as usual, but here we use the gaia_plx helper function to read the parallax and uncertainty directly from the HGCA using its source ID.
We also add parameters for the long term system's proper motion. This is usually close to the long term trend between the Hipparcos and GAIA measurements.
After the priors, we add the proper motion anomaly measurements from the HGCA. If this is your first time running this code, you will be prompted to automatically download and cache the catalog which may take around 30 seconds.
Sampling from the posterior
Sample from our model as usual:

model = Octofitter.LogDensityModel(HD91312)
chain = octofit(model)

Chains MCMC chain (1000×32×1 Array{Float64, 3}):

Iterations        = 1:1:1000
Number of chains  = 1
Samples per chain = 1000
Wall duration     = 44.91 seconds
Compute duration  = 44.91 seconds
parameters        = M, plx, pmra, pmdec, B_a, B_e, B_ωy, B_ωx, B_i, B_Ωy, B_Ωx, B_mass, B_τy, B_τx, B_ω, B_Ω, B_τ, B_P, B_tp
internals         = n_steps, is_accept, acceptance_rate, hamiltonian_energy, hamiltonian_energy_error, max_hamiltonian_energy_error, tree_depth, numerical_error, step_size, nom_step_size, is_adapt, loglike, logpost, tree_depth, numerical_error

Summary Statistics
  parameters         mean        std      mcse    ess_bulk   ess_tail      rha ⋯
      Symbol      Float64    Float64   Float64     Float64    Float64   Float6 ⋯

           M       1.6088     0.0970    0.0045    460.9304   574.9350    0.999 ⋯
         plx      29.1424     0.1453    0.0045   1046.4247   640.0229    0.999 ⋯
        pmra    -137.6511     0.0198    0.0006   1023.1803   731.1019    1.001 ⋯
       pmdec       1.8874     0.0127    0.0004    954.9417   635.4416    1.003 ⋯
         B_a       8.6798     0.4981    0.0534     83.9293   131.9970    1.020 ⋯
         B_e       0.1168     0.0787    0.0063    152.5549   238.3914    1.000 ⋯
        B_ωy      -0.5649     0.4250    0.0459     97.6220   155.8247    1.028 ⋯
        B_ωx      -0.4398     0.5557    0.0408    165.9449   209.1463    1.006 ⋯
         B_i       1.4436     0.0223    0.0018    176.4760   170.9876    1.008 ⋯
        B_Ωy       0.7779     0.0208    0.0012    310.4250   404.1388    1.004 ⋯
        B_Ωx      -0.6290     0.0224    0.0012    361.1046   391.3336    1.003 ⋯
      B_mass     236.3563    91.8192    8.9659    186.6850   126.9693    1.004 ⋯
        B_τy       0.7218     0.3314    0.0375    123.1028   117.9802    1.030 ⋯
        B_τx       0.2084     0.5727    0.0476    126.7688   177.4436    1.023 ⋯
         B_ω      -1.1222     2.0682    0.1049    553.8505   757.6287    1.000 ⋯
         B_Ω      -0.6800     0.0238    0.0015    268.9211   322.4638    1.006 ⋯
         B_τ       0.0386     0.1230    0.0104    123.0878   139.6084    1.024 ⋯
      ⋮            ⋮           ⋮          ⋮          ⋮          ⋮          ⋮   ⋱
                                                    2 columns and 2 rows omitted
…
